\relax 
\@writefile{toc}{\contentsline {section}{\numberline {1}Cryptographic Foundations}{1}}
\@writefile{toc}{\contentsline {subsection}{\numberline {1.1}Hash Functions}{1}}
\@writefile{toc}{\contentsline {subsubsection}{\numberline {1.1.1}Hash Collisions}{1}}
\@writefile{toc}{\contentsline {subsubsection}{\numberline {1.1.2}Hash Hiding Property}{1}}
\@writefile{toc}{\contentsline {subsection}{\numberline {1.2}Elliptic Curves}{1}}
\@writefile{toc}{\contentsline {subsection}{\numberline {1.3}Digital Signatures}{1}}
