\relax 
\@writefile{toc}{\contentsline {section}{\numberline {1}Week 1}{1}}
\@writefile{toc}{\contentsline {section}{\numberline {2}Week 2}{1}}
\@writefile{toc}{\contentsline {section}{\numberline {3}Week 3}{1}}
\@writefile{toc}{\contentsline {section}{\numberline {4}Week 4}{2}}
\@writefile{toc}{\contentsline {section}{\numberline {5}Week 5}{2}}
