\relax 
\@writefile{toc}{\contentsline {section}{\numberline {1}Introduction and Overview}{1}}
\@writefile{toc}{\contentsline {subsection}{\numberline {1.1}What are Blockchains and Cryptocurrencies?}{1}}
\@writefile{toc}{\contentsline {subsection}{\numberline {1.2}Electronic Payments}{1}}
\@writefile{toc}{\contentsline {subsubsection}{\numberline {1.2.1}Types of Electronic Payments}{1}}
\@writefile{toc}{\contentsline {subsubsection}{\numberline {1.2.2}Electronic Cash in the 1980s and 1990s}{2}}
