\relax 
\@writefile{toc}{\contentsline {section}{\numberline {1}Intro to Cryptography and Cryptocurrencies}{1}}
\@writefile{toc}{\contentsline {subsection}{\numberline {1.1}Cryptographic Hash Functions}{1}}
\@writefile{toc}{\contentsline {subsubsection}{\numberline {1.1.1}SHA-256 Hash Function}{2}}
\@writefile{toc}{\contentsline {subsection}{\numberline {1.2}Hash Pointers and Data Structures}{3}}
\@writefile{toc}{\contentsline {subsubsection}{\numberline {1.2.1}Detecting Tampering}{3}}
\@writefile{toc}{\contentsline {subsubsection}{\numberline {1.2.2}Binary Tree with Hash Pointers (Merkle Tree)}{3}}
\@writefile{toc}{\contentsline {subsection}{\numberline {1.3}Digital Signatures}{4}}
\@writefile{toc}{\contentsline {subsection}{\numberline {1.4}Public Keys as Identifiers}{4}}
\@writefile{toc}{\contentsline {subsection}{\numberline {1.5}A Simple Cryptocurrency (GoofyCoin)}{5}}
\@writefile{toc}{\contentsline {subsubsection}{\numberline {1.5.1}Double-Spending Attack}{5}}
