PWD c:/Users/fredd/Documents/Gitlab/ttm4537_blockchain-technologies-and-cryptocurrencies/lectures/video-lectures/lecture-1_introduction-to-cryptography-and-cryptocurrencies
INPUT d:/texlive/2018/texmf.cnf
INPUT d:/texlive/2018/texmf-dist/web2c/texmf.cnf
INPUT d:/texlive/2018/texmf-var/web2c/pdftex/pdflatex.fmt
INPUT c:/Users/fredd/Documents/Gitlab/ttm4537_blockchain-technologies-and-cryptocurrencies/lectures/video-lectures/lecture-1_introduction-to-cryptography-and-cryptocurrencies/main.tex
