\relax 
\providecommand\hyper@newdestlabel[2]{}
\providecommand\HyperFirstAtBeginDocument{\AtBeginDocument}
\HyperFirstAtBeginDocument{\ifx\hyper@anchor\@undefined
\global\let\oldcontentsline\contentsline
\gdef\contentsline#1#2#3#4{\oldcontentsline{#1}{#2}{#3}}
\global\let\oldnewlabel\newlabel
\gdef\newlabel#1#2{\newlabelxx{#1}#2}
\gdef\newlabelxx#1#2#3#4#5#6{\oldnewlabel{#1}{{#2}{#3}}}
\AtEndDocument{\ifx\hyper@anchor\@undefined
\let\contentsline\oldcontentsline
\let\newlabel\oldnewlabel
\fi}
\fi}
\global\let\hyper@last\relax 
\gdef\HyperFirstAtBeginDocument#1{#1}
\providecommand\HyField@AuxAddToFields[1]{}
\providecommand\HyField@AuxAddToCoFields[2]{}
\@writefile{toc}{\contentsline {section}{\numberline {0}Task 0: Key and Address Setup}{2}{section.0}}
\newlabel{t0}{{0}{2}{Task 0: Key and Address Setup}{section.0}{}}
\@writefile{toc}{\contentsline {section}{\numberline {1}Task 1: Basic Payments}{2}{section.1}}
\newlabel{t1}{{1}{2}{Task 1: Basic Payments}{section.1}{}}
\@writefile{toc}{\contentsline {section}{\numberline {2}Task 2: Posting Data using OP RETURN}{3}{section.2}}
\newlabel{t2}{{2}{3}{Task 2: Posting Data using OP RETURN}{section.2}{}}
\@writefile{toc}{\contentsline {section}{\numberline {3}Task 3: Using Multisignatures with P2SH}{3}{section.3}}
\newlabel{t3}{{3}{3}{Task 3: Using Multisignatures with P2SH}{section.3}{}}
\@writefile{toc}{\contentsline {section}{\numberline {4}Summary of Questions on Blackboard}{3}{section.4}}
\newlabel{ref1}{{1}{4}{References}{Item.20}{}}
\newlabel{ref2}{{2}{4}{References}{Item.21}{}}
\newlabel{ref3}{{3}{4}{References}{Item.22}{}}
\newlabel{ref4}{{4}{4}{References}{Item.23}{}}
\newlabel{ref5}{{5}{4}{References}{Item.24}{}}
\newlabel{ref6}{{6}{4}{References}{Item.25}{}}
\newlabel{ref7}{{7}{4}{References}{Item.26}{}}
\newlabel{ref8}{{8}{4}{References}{Item.27}{}}
\newlabel{ref9}{{9}{4}{References}{Item.28}{}}
\newlabel{ref10}{{10}{4}{References}{Item.29}{}}
\newlabel{ref11}{{11}{4}{References}{Item.30}{}}
\newlabel{ref12}{{12}{4}{References}{Item.31}{}}
\@writefile{toc}{\contentsline {section}{\numberline {A}Source Code}{5}{appendix.A}}
\@writefile{toc}{\contentsline {subsection}{\numberline {A.1}main.dart}{5}{subsection.A.1}}
\@writefile{toc}{\contentsline {subsection}{\numberline {A.2}settings.dart}{5}{subsection.A.2}}
\@writefile{toc}{\contentsline {subsection}{\numberline {A.3}task0.dart}{6}{subsection.A.3}}
\@writefile{toc}{\contentsline {subsection}{\numberline {A.4}task1.dart}{6}{subsection.A.4}}
\@writefile{toc}{\contentsline {subsection}{\numberline {A.5}task2.dart}{7}{subsection.A.5}}
\@writefile{toc}{\contentsline {subsection}{\numberline {A.6}task3.dart}{8}{subsection.A.6}}
\@writefile{toc}{\contentsline {subsection}{\numberline {A.7}base.dart}{9}{subsection.A.7}}
\@writefile{toc}{\contentsline {subsection}{\numberline {A.8}classes.dart}{9}{subsection.A.8}}
\@writefile{toc}{\contentsline {subsection}{\numberline {A.9}generate\_wallet.dart}{11}{subsection.A.9}}
\@writefile{toc}{\contentsline {subsection}{\numberline {A.10}sendBTC.dart}{12}{subsection.A.10}}
