\contentsline {section}{\numberline {0}Task 0: Key and Address Setup}{2}{section.0}
\contentsline {section}{\numberline {1}Task 1: Basic Payments}{2}{section.1}
\contentsline {section}{\numberline {2}Task 2: Posting Data using OP RETURN}{3}{section.2}
\contentsline {section}{\numberline {3}Task 3: Using Multisignatures with P2SH}{3}{section.3}
\contentsline {section}{\numberline {4}Summary of Questions on Blackboard}{3}{section.4}
\contentsline {section}{\numberline {A}Source Code}{5}{appendix.A}
\contentsline {subsection}{\numberline {A.1}main.dart}{5}{subsection.A.1}
\contentsline {subsection}{\numberline {A.2}settings.dart}{5}{subsection.A.2}
\contentsline {subsection}{\numberline {A.3}task0.dart}{6}{subsection.A.3}
\contentsline {subsection}{\numberline {A.4}task1.dart}{6}{subsection.A.4}
\contentsline {subsection}{\numberline {A.5}task2.dart}{7}{subsection.A.5}
\contentsline {subsection}{\numberline {A.6}task3.dart}{8}{subsection.A.6}
\contentsline {subsection}{\numberline {A.7}base.dart}{9}{subsection.A.7}
\contentsline {subsection}{\numberline {A.8}classes.dart}{9}{subsection.A.8}
\contentsline {subsection}{\numberline {A.9}generate\_wallet.dart}{11}{subsection.A.9}
\contentsline {subsection}{\numberline {A.10}sendBTC.dart}{12}{subsection.A.10}
