# Fdb version 3
["pdflatex"] 1537357136 "c:/Users/fredd/Documents/Gitlab/ttm4537_blockchain-technologies-and-cryptocurrencies/assessments/practical-project/blockchain-exploration/report/report.tex" "report.pdf" "report" 1537357138
  "c:/Users/fredd/Documents/Gitlab/ttm4537_blockchain-technologies-and-cryptocurrencies/assessments/practical-project/blockchain-exploration/report/report.tex" 1537357136 44661 62835d0b7762112ce518ddb3903b61fa ""
  "d:/texlive/2018/texmf-dist/fonts/map/fontname/texfonts.map" 1534414663 3332 103109f5612ad95229751940c61aada0 ""
  "d:/texlive/2018/texmf-dist/fonts/tfm/public/cm/cmbx10.tfm" 1534413646 1328 c834bbb027764024c09d3d2bf908b5f0 ""
  "d:/texlive/2018/texmf-dist/fonts/tfm/public/cm/cmbx12.tfm" 1534413646 1324 c910af8c371558dc20f2d7822f66fe64 ""
  "d:/texlive/2018/texmf-dist/fonts/tfm/public/cm/cmbxti10.tfm" 1534413646 1532 9162035f4e7176612125649e348e2195 ""
  "d:/texlive/2018/texmf-dist/fonts/tfm/public/cm/cmmi12.tfm" 1534413646 1524 4414a8315f39513458b80dfc63bff03a ""
  "d:/texlive/2018/texmf-dist/fonts/tfm/public/cm/cmmi6.tfm" 1534413646 1512 f21f83efb36853c0b70002322c1ab3ad ""
  "d:/texlive/2018/texmf-dist/fonts/tfm/public/cm/cmmi8.tfm" 1534413646 1520 eccf95517727cb11801f4f1aee3a21b4 ""
  "d:/texlive/2018/texmf-dist/fonts/tfm/public/cm/cmr12.tfm" 1534413646 1288 655e228510b4c2a1abe905c368440826 ""
  "d:/texlive/2018/texmf-dist/fonts/tfm/public/cm/cmr17.tfm" 1534413646 1292 296a67155bdbfc32aa9c636f21e91433 ""
  "d:/texlive/2018/texmf-dist/fonts/tfm/public/cm/cmr6.tfm" 1534413646 1300 b62933e007d01cfd073f79b963c01526 ""
  "d:/texlive/2018/texmf-dist/fonts/tfm/public/cm/cmr8.tfm" 1534413646 1292 21c1c5bfeaebccffdb478fd231a0997d ""
  "d:/texlive/2018/texmf-dist/fonts/tfm/public/cm/cmsy10.tfm" 1534413646 1124 6c73e740cf17375f03eec0ee63599741 ""
  "d:/texlive/2018/texmf-dist/fonts/tfm/public/cm/cmsy6.tfm" 1534413647 1116 933a60c408fc0a863a92debe84b2d294 ""
  "d:/texlive/2018/texmf-dist/fonts/tfm/public/cm/cmsy8.tfm" 1534413647 1120 8b7d695260f3cff42e636090a8002094 ""
  "d:/texlive/2018/texmf-dist/fonts/tfm/public/cm/cmti10.tfm" 1534413647 1480 aa8e34af0eb6a2941b776984cf1dfdc4 ""
  "d:/texlive/2018/texmf-dist/fonts/tfm/public/cm/cmtt10.tfm" 1534413647 768 1321e9409b4137d6fb428ac9dc956269 ""
  "d:/texlive/2018/texmf-dist/fonts/tfm/public/txfonts/t1xbtt.tfm" 1534417922 1436 f00b2a275be56a8355f5c3b07a5a7a4c ""
  "d:/texlive/2018/texmf-dist/fonts/tfm/public/txfonts/t1xtt.tfm" 1534417922 1384 8943063000d26272532f74ca134dfecd ""
  "d:/texlive/2018/texmf-dist/fonts/type1/public/amsfonts/cm/cmbx10.pfb" 1534413106 34811 78b52f49e893bcba91bd7581cdc144c0 ""
  "d:/texlive/2018/texmf-dist/fonts/type1/public/amsfonts/cm/cmbx12.pfb" 1534413106 32080 340ef9bf63678554ee606688e7b5339d ""
  "d:/texlive/2018/texmf-dist/fonts/type1/public/amsfonts/cm/cmbxti10.pfb" 1534413106 36554 b67dc2cfa451409e100b3fcf5f506509 ""
  "d:/texlive/2018/texmf-dist/fonts/type1/public/amsfonts/cm/cmex10.pfb" 1534413106 30251 6afa5cb1d0204815a708a080681d4674 ""
  "d:/texlive/2018/texmf-dist/fonts/type1/public/amsfonts/cm/cmmi10.pfb" 1534413106 36299 5f9df58c2139e7edcf37c8fca4bd384d ""
  "d:/texlive/2018/texmf-dist/fonts/type1/public/amsfonts/cm/cmmi7.pfb" 1534413106 36281 c355509802a035cadc5f15869451dcee ""
  "d:/texlive/2018/texmf-dist/fonts/type1/public/amsfonts/cm/cmr10.pfb" 1534413106 35752 024fb6c41858982481f6968b5fc26508 ""
  "d:/texlive/2018/texmf-dist/fonts/type1/public/amsfonts/cm/cmr12.pfb" 1534413106 32722 d7379af29a190c3f453aba36302ff5a9 ""
  "d:/texlive/2018/texmf-dist/fonts/type1/public/amsfonts/cm/cmr17.pfb" 1534413106 32362 bc3f3eec7ab7d65fe700963d4017d32c ""
  "d:/texlive/2018/texmf-dist/fonts/type1/public/amsfonts/cm/cmr7.pfb" 1534413106 32762 7fee39e011c23b3589931effd97b9702 ""
  "d:/texlive/2018/texmf-dist/fonts/type1/public/amsfonts/cm/cmsy10.pfb" 1534413106 32569 5e5ddc8df908dea60932f3c484a54c0d ""
  "d:/texlive/2018/texmf-dist/fonts/type1/public/amsfonts/cm/cmsy7.pfb" 1534413107 32716 08e384dc442464e7285e891af9f45947 ""
  "d:/texlive/2018/texmf-dist/fonts/type1/public/amsfonts/cm/cmti10.pfb" 1534413107 37944 359e864bd06cde3b1cf57bb20757fb06 ""
  "d:/texlive/2018/texmf-dist/fonts/type1/public/amsfonts/cm/cmtt10.pfb" 1534413107 31099 342ef5a582aacbd3346f3cf4579679fa ""
  "d:/texlive/2018/texmf-dist/fonts/type1/public/txfonts/t1xbtt.pfb" 1534417923 26580 8886cc7827569e05fd10df25f221aef6 ""
  "d:/texlive/2018/texmf-dist/fonts/type1/public/txfonts/t1xtt.pfb" 1534417923 26301 f08b3c26ea42c3177a262c2ac37d6a91 ""
  "d:/texlive/2018/texmf-dist/tex/context/base/mkii/supp-pdf.mkii" 1534416185 71627 94eb9990bed73c364d7f53f960cc8c5b ""
  "d:/texlive/2018/texmf-dist/tex/generic/ifxetex/ifxetex.sty" 1534415043 1458 43ab4710dc82f3edeabecd0d099626b2 ""
  "d:/texlive/2018/texmf-dist/tex/generic/oberdiek/gettitlestring.sty" 1534416455 8237 3b62ef1f7e2c23a328c814b3893bc11f ""
  "d:/texlive/2018/texmf-dist/tex/generic/oberdiek/hobsub-generic.sty" 1534416455 185313 3e16abd014cb2c328020e45d63ed7f45 ""
  "d:/texlive/2018/texmf-dist/tex/generic/oberdiek/hobsub-hyperref.sty" 1534416455 70864 bcd5b216757bd619ae692a151d90085d ""
  "d:/texlive/2018/texmf-dist/tex/generic/oberdiek/ifpdf.sty" 1534416455 1251 d170e11a3246c3392bc7f59595af42cb ""
  "d:/texlive/2018/texmf-dist/tex/generic/oberdiek/ifvtex.sty" 1534416455 6797 90b7f83b0ad46826bc16058b1e3d48df ""
  "d:/texlive/2018/texmf-dist/tex/latex/base/article.cls" 1534415382 19823 fcbc01552b07b608574cbf8e1977e0c0 ""
  "d:/texlive/2018/texmf-dist/tex/latex/base/inputenc.sty" 1534415383 5052 f2525dfd6e503dc383e90b568c6c9f02 ""
  "d:/texlive/2018/texmf-dist/tex/latex/base/omlcmr.fd" 1534415383 2473 8052e27f66be3b6e63e955171dae6bfe ""
  "d:/texlive/2018/texmf-dist/tex/latex/base/omscmr.fd" 1534415383 2472 aa08940f0a4dc6c24ae9f943b04ae0b9 ""
  "d:/texlive/2018/texmf-dist/tex/latex/base/size10.clo" 1534415384 8294 b0f177401f895563eb19304d2389582d ""
  "d:/texlive/2018/texmf-dist/tex/latex/float/float.sty" 1534414624 6749 16d2656a1984957e674b149555f1ea1d ""
  "d:/texlive/2018/texmf-dist/tex/latex/geometry/geometry.sty" 1534414750 41645 0653033a985e06c69a2a9cea9a95e31a ""
  "d:/texlive/2018/texmf-dist/tex/latex/graphics-cfg/color.cfg" 1534414859 1213 620bba36b25224fa9b7e1ccb4ecb76fd ""
  "d:/texlive/2018/texmf-dist/tex/latex/graphics-cfg/graphics.cfg" 1534414859 1224 978390e9c2234eab29404bc21b268d1e ""
  "d:/texlive/2018/texmf-dist/tex/latex/graphics-def/pdftex.def" 1534414859 17334 520b9b85ad8a2a48eda3f643e27a5179 ""
  "d:/texlive/2018/texmf-dist/tex/latex/graphics/color.sty" 1534414856 7028 112f909feb676788e7ea1c5b0b76320f ""
  "d:/texlive/2018/texmf-dist/tex/latex/graphics/graphics.sty" 1534414856 15272 5a97061616e0c8b2aa79c6615ff769f4 ""
  "d:/texlive/2018/texmf-dist/tex/latex/graphics/graphicx.sty" 1534414856 9063 d0a305975932762117cd1f06a582f896 ""
  "d:/texlive/2018/texmf-dist/tex/latex/graphics/keyval.sty" 1534414856 2591 6404d0c7d28505fb38ce0d86c2e28ae7 ""
  "d:/texlive/2018/texmf-dist/tex/latex/graphics/trig.sty" 1534414856 3977 cb9221976ed8a183afad65b59aa8629a ""
  "d:/texlive/2018/texmf-dist/tex/latex/hyperref/hpdftex.def" 1534414998 51699 9069fc983fff0db91d59a15af144ad62 ""
  "d:/texlive/2018/texmf-dist/tex/latex/hyperref/hyperref.sty" 1534414998 234088 2c849389d62d41c593d9f5176c4116ab ""
  "d:/texlive/2018/texmf-dist/tex/latex/hyperref/nameref.sty" 1534414998 12949 81e4e808884a8f0e276b69410e234656 ""
  "d:/texlive/2018/texmf-dist/tex/latex/hyperref/pd1enc.def" 1534414998 14098 4e70bf396c7c265bd8b0e5cab3fd3d4d ""
  "d:/texlive/2018/texmf-dist/tex/latex/latexconfig/epstopdf-sys.cfg" 1534415443 678 4792914a8f45be57bb98413425e4c7af ""
  "d:/texlive/2018/texmf-dist/tex/latex/latexconfig/hyperref.cfg" 1534415443 235 6031e5765137be07eed51a510b2b8fb7 ""
  "d:/texlive/2018/texmf-dist/tex/latex/listings/listings.cfg" 1534415639 1827 d72ad54409ca5c1068a1939c63441bd2 ""
  "d:/texlive/2018/texmf-dist/tex/latex/listings/listings.sty" 1534415639 80336 ff90c926c3d7bfdaa3d80ca57123b0bb ""
  "d:/texlive/2018/texmf-dist/tex/latex/listings/lstlang1.sty" 1534415639 93445 48e5be20ba2d0a2ca5c4ce7e292a4bbc ""
  "d:/texlive/2018/texmf-dist/tex/latex/listings/lstmisc.sty" 1534415639 77028 c3eb00afb55a32bc13ca8da7f5234377 ""
  "d:/texlive/2018/texmf-dist/tex/latex/oberdiek/auxhook.sty" 1534416456 3834 4363110eb0ef1eb2b71c8fcbcdb6c357 ""
  "d:/texlive/2018/texmf-dist/tex/latex/oberdiek/epstopdf-base.sty" 1534416456 12095 5337833c991d80788a43d3ce26bd1c46 ""
  "d:/texlive/2018/texmf-dist/tex/latex/oberdiek/grfext.sty" 1534416456 7075 2fe3d848bba95f139de11ded085e74aa ""
  "d:/texlive/2018/texmf-dist/tex/latex/oberdiek/kvoptions.sty" 1534416457 22417 1d9df1eb66848aa31b18a593099cf45c ""
  "d:/texlive/2018/texmf-dist/tex/latex/oberdiek/rerunfilecheck.sty" 1534416457 9581 023642318cef9f4677efe364de1e2a27 ""
  "d:/texlive/2018/texmf-dist/tex/latex/txfonts/t1txtt.fd" 1534417923 1324 7b6c95370a64cd8c7620cbefefb53dba ""
  "d:/texlive/2018/texmf-dist/tex/latex/url/url.sty" 1534418002 12796 8edb7d69a20b857904dd0ea757c14ec9 ""
  "d:/texlive/2018/texmf-dist/web2c/texmf.cnf" 1534415292 33362 cf75436e19743e94a92a6b1b9183c434 ""
  "d:/texlive/2018/texmf-var/fonts/map/pdftex/updmap/pdftex.map" 1534418206 2774381 4290273cda8d219ce5b0922c2b7313db ""
  "d:/texlive/2018/texmf-var/web2c/pdftex/pdflatex.fmt" 1534418291 2548195 b47fa67696ecc1c33c6e04868c1235a9 ""
  "d:/texlive/2018/texmf.cnf" 1534418190 673 4ae7b2f49cee444c5343a45b5d0f169c ""
  "images/bitcoin_hash-rate.png" 1536408857 90882 28475ac5065fdf9ae80ee0a908ff9a0c ""
  "images/transactions-per-block-2018.png" 1537273086 121763 cc88c3a4c395a7b306fb75e06314d050 ""
  "report.aux" 1537357137 3440 0c38283cbefaa4b211cbd23315102fe5 ""
  "report.out" 1537357137 1297 3760a1ba0cb82513c2f850489b8e0d8a ""
  "report.tex" 1537357136 44661 62835d0b7762112ce518ddb3903b61fa ""
  "report.toc" 1537357137 1681 b249e3e2565a3b9a804dd7df3a74483a ""
  (generated)
  "report.log"
  "report.toc"
  "report.aux"
  "report.pdf"
  "report.out"
