\contentsline {section}{\numberline {1}Question 1}{2}{section.1}
\contentsline {section}{\numberline {2}Question 2: General}{3}{section.2}
\contentsline {section}{\numberline {3}Question 3: General}{3}{section.3}
\contentsline {section}{\numberline {4}Question 4: Block Reward}{4}{section.4}
\contentsline {section}{\numberline {5}Question 5: Block Reward}{4}{section.5}
\contentsline {section}{\numberline {6}Question 6: Block Reward}{5}{section.6}
\contentsline {section}{\numberline {7}Question 7: Block Time}{5}{section.7}
\contentsline {section}{\numberline {8}Question 8: Block Time}{6}{section.8}
\contentsline {section}{\numberline {9}Question 9: Transaction Fees}{6}{section.9}
\contentsline {section}{\numberline {10}Question 10: Difficulty}{7}{section.10}
\contentsline {section}{\numberline {A}Shortened Source Codes}{9}{appendix.A}
\contentsline {subsection}{\numberline {A.1}BTC API}{9}{subsection.A.1}
\contentsline {subsection}{\numberline {A.2}Question 1}{9}{subsection.A.2}
\contentsline {subsection}{\numberline {A.3}Question 2}{11}{subsection.A.3}
\contentsline {subsection}{\numberline {A.4}Question 3}{12}{subsection.A.4}
\contentsline {subsection}{\numberline {A.5}Question 4}{13}{subsection.A.5}
\contentsline {subsection}{\numberline {A.6}Question 5}{13}{subsection.A.6}
\contentsline {subsection}{\numberline {A.7}Question 6}{13}{subsection.A.7}
\contentsline {subsection}{\numberline {A.8}Question 7}{14}{subsection.A.8}
\contentsline {subsection}{\numberline {A.9}Question 8}{16}{subsection.A.9}
\contentsline {subsection}{\numberline {A.10}Question 9}{18}{subsection.A.10}
\contentsline {subsection}{\numberline {A.11}Question 10}{20}{subsection.A.11}
