\relax 
\providecommand\hyper@newdestlabel[2]{}
\providecommand\HyperFirstAtBeginDocument{\AtBeginDocument}
\HyperFirstAtBeginDocument{\ifx\hyper@anchor\@undefined
\global\let\oldcontentsline\contentsline
\gdef\contentsline#1#2#3#4{\oldcontentsline{#1}{#2}{#3}}
\global\let\oldnewlabel\newlabel
\gdef\newlabel#1#2{\newlabelxx{#1}#2}
\gdef\newlabelxx#1#2#3#4#5#6{\oldnewlabel{#1}{{#2}{#3}}}
\AtEndDocument{\ifx\hyper@anchor\@undefined
\let\contentsline\oldcontentsline
\let\newlabel\oldnewlabel
\fi}
\fi}
\global\let\hyper@last\relax 
\gdef\HyperFirstAtBeginDocument#1{#1}
\providecommand\HyField@AuxAddToFields[1]{}
\providecommand\HyField@AuxAddToCoFields[2]{}
\@writefile{toc}{\contentsline {section}{\numberline {1}Question 1}{2}{section.1}}
\newlabel{q1}{{1}{2}{Question 1}{section.1}{}}
\@writefile{lof}{\contentsline {figure}{\numberline {1}{\ignorespaces Average Number of Transactions per. Block (2018) [\ref  {ref1}].}}{2}{figure.1}}
\newlabel{fig1}{{1}{2}{Average Number of Transactions per. Block (2018) [\ref {ref1}]}{figure.1}{}}
\@writefile{toc}{\contentsline {section}{\numberline {2}Question 2: General}{3}{section.2}}
\@writefile{toc}{\contentsline {section}{\numberline {3}Question 3: General}{3}{section.3}}
\@writefile{toc}{\contentsline {section}{\numberline {4}Question 4: Block Reward}{4}{section.4}}
\@writefile{lof}{\contentsline {figure}{\numberline {2}{\ignorespaces Bitcoin Hash Rate (2016) [\ref  {ref3}].}}{4}{figure.2}}
\newlabel{fig2}{{2}{4}{Bitcoin Hash Rate (2016) [\ref {ref3}]}{figure.2}{}}
\@writefile{toc}{\contentsline {section}{\numberline {5}Question 5: Block Reward}{4}{section.5}}
\@writefile{toc}{\contentsline {section}{\numberline {6}Question 6: Block Reward}{5}{section.6}}
\@writefile{toc}{\contentsline {section}{\numberline {7}Question 7: Block Time}{5}{section.7}}
\newlabel{q7}{{7}{5}{Question 7: Block Time}{section.7}{}}
\@writefile{toc}{\contentsline {section}{\numberline {8}Question 8: Block Time}{6}{section.8}}
\@writefile{toc}{\contentsline {section}{\numberline {9}Question 9: Transaction Fees}{6}{section.9}}
\@writefile{toc}{\contentsline {section}{\numberline {10}Question 10: Difficulty}{7}{section.10}}
\newlabel{ref1}{{1}{8}{References}{Item.37}{}}
\newlabel{ref2}{{2}{8}{References}{Item.38}{}}
\newlabel{ref3}{{3}{8}{References}{Item.39}{}}
\@writefile{toc}{\contentsline {section}{\numberline {A}Shortened Source Codes}{9}{appendix.A}}
\@writefile{toc}{\contentsline {subsection}{\numberline {A.1}BTC API}{9}{subsection.A.1}}
\@writefile{toc}{\contentsline {subsection}{\numberline {A.2}Question 1}{9}{subsection.A.2}}
\@writefile{toc}{\contentsline {subsection}{\numberline {A.3}Question 2}{11}{subsection.A.3}}
\@writefile{toc}{\contentsline {subsection}{\numberline {A.4}Question 3}{12}{subsection.A.4}}
\@writefile{toc}{\contentsline {subsection}{\numberline {A.5}Question 4}{13}{subsection.A.5}}
\@writefile{toc}{\contentsline {subsection}{\numberline {A.6}Question 5}{13}{subsection.A.6}}
\@writefile{toc}{\contentsline {subsection}{\numberline {A.7}Question 6}{13}{subsection.A.7}}
\@writefile{toc}{\contentsline {subsection}{\numberline {A.8}Question 7}{14}{subsection.A.8}}
\@writefile{toc}{\contentsline {subsection}{\numberline {A.9}Question 8}{16}{subsection.A.9}}
\@writefile{toc}{\contentsline {subsection}{\numberline {A.10}Question 9}{18}{subsection.A.10}}
\@writefile{toc}{\contentsline {subsection}{\numberline {A.11}Question 10}{20}{subsection.A.11}}
